<?xml version="1.0" encoding="utf-8"?>
<!-- Generator: Adobe Illustrator 16.0.2, SVG Export Plug-In . SVG Version: 6.00 Build 0)  -->
<!DOCTYPE svg PUBLIC "-//W3C//DTD SVG 1.1//EN" "http://www.w3.org/Graphics/SVG/1.1/DTD/svg11.dtd">
<svg version="1.1" id="Layer_1" xmlns="http://www.w3.org/2000/svg" viewBox="0 0 200 200">
<style type="text/css">
<![CDATA[
	.st0{fill:#282B2E;}
]]>
</style>
<path class="st0" d="M-13.332,212H212V-8H-13.332V212z M178.949,101.336l-84.281,50.429V120h-80V82.666h80V50.902L178.949,101.336z"
	/>
</svg>
