<?xml version="1.0" encoding="utf-8"?>
<!DOCTYPE svg PUBLIC "-//W3C//DTD SVG 1.1//EN" "http://www.w3.org/Graphics/SVG/1.1/DTD/svg11.dtd">
<svg version="1.1" id="Layer_1" xmlns="http://www.w3.org/2000/svg" viewBox="0 0 512 512">
<style type="text/css">
<![CDATA[
	.st0{fill:#C62828;}
	.st1{fill:#FFFFFF;}
]]>
</style>
<rect class="st0" width="512" height="512"/>
<g>
	<path class="st1" d="M237.758,472.031V502.5h-13.887v-84.023h25.488c9.647,0,17.129,2.247,22.441,6.738
		c5.312,4.492,7.97,10.82,7.97,18.984c0,8.165-2.773,14.845-8.319,20.039c-5.548,5.193-13.048,7.793-22.5,7.793H237.758z
		 M237.758,429.961v30.703h9.023c5.977,0,10.526-1.386,13.653-4.16c3.125-2.771,4.688-6.68,4.688-11.719
		c0-9.882-5.742-14.824-17.227-14.824H237.758z"/>
	<path class="st1" d="M354.77,502.5h-15.293l-7.559-21.387h-33.047l-7.266,21.387h-15.234l31.465-84.023h15.703L354.77,502.5z
		 M328.227,469.746l-11.658-33.516c-0.354-1.095-0.726-2.853-1.113-5.273h-0.234c-0.352,2.227-0.742,3.984-1.172,5.273
		l-11.543,33.516H328.227z"/>
	<path class="st1" d="M423.207,498.984c-6.328,3.279-14.2,4.922-23.613,4.922c-12.188,0-21.953-3.849-29.297-11.543
		c-7.345-7.695-11.016-17.792-11.016-30.293c0-13.438,4.131-24.296,12.393-32.578c8.262-8.281,18.7-12.422,31.318-12.422
		c8.124,0,14.86,1.15,20.215,3.457v13.828c-5.664-3.359-11.915-5.039-18.75-5.039c-9.104,0-16.475,2.908-22.119,8.729
		c-5.646,5.821-8.467,13.594-8.467,23.32c0,9.258,2.637,16.632,7.91,22.119c5.271,5.486,12.207,8.23,20.801,8.23
		c7.93,0,14.804-1.875,20.625-5.625V498.984z"/>
	<path class="st1" d="M502.719,502.5h-18.164l-29.236-38.438c-1.096-1.444-1.76-2.424-1.992-2.932h-0.234V502.5h-13.945v-84.023
		h13.945v39.492h0.234c0.469-0.856,1.133-1.814,1.992-2.871l28.184-36.621H500.2l-32.988,40.313L502.719,502.5z"/>
</g>
<g>
	<path class="st1" d="M220.628,109.553c28.009-2.071,59.643-0.937,91.917-0.937c28.924,0,67.117-4.164,87.229,3.752
		c17.914,7.05,32.069,22.298,29.076,48.772c-1.503,13.284-10.455,27.371-15.007,38.456c-15.065,36.688-32.484,78.619-46.898,113.489
		c-22.194,53.7-72.546,96.051-148.192,90.981c-41.014-2.752-73.628-23.016-95.67-45.96c-23.17-24.119-40.331-57.132-40.331-101.296
		c0-42.368,17.672-76.91,40.331-101.298C145.263,131.639,177.354,112.753,220.628,109.553 M393.208,145.195
		c2.529-26.371-38.976-28.805-38.456-0.938h14.068c-2.113-12.18,9.561-11.923,11.257-3.752c3.593,17.325-32.005,31.47-26.264,52.524
		c13.487-0.042,27.155-0.267,39.395,0.938c1.464-2.149,1.464-9.104,0-11.255H368.82
		C375.756,172.256,391.681,161.122,393.208,145.195 M144.655,172.395c-17.542,17.92-31.218,39.789-33.766,71.283
		c-4.793,59.23,25.723,96.873,58.152,116.305c33.605,20.135,80.686,23.176,118.18,2.813c34.455-18.709,55.602-48.641,61.903-86.288
		c7.718-46.117-13.575-88.161-36.58-108.802c-20.948-18.797-51.982-34.785-96.606-30.014
		C183.969,141.109,160.999,155.696,144.655,172.395"/>
	<path class="st1" d="M196.557,176.584h39.223c13.782,40.219,30.558,77.448,44.34,117.668c7.373-1.722,14.028-4.159,20.462-6.82
		c4.08,6.15,4.693,15.771,8.527,22.169c-13.596,6.584-29.902,10.459-46.043,14.496c-7.958-24.445-18.003-46.802-26.433-70.773
		c-15.178,20.635-27.871,43.753-42.634,64.802h-28.991c-0.267-4.048,2.95-8.34,5.117-11.938
		c16.749-27.795,36.043-59.111,52.866-87.824c-1.475-7.053-4.94-12.114-6.822-18.759h-19.611L196.557,176.584L196.557,176.584z"/>
</g>
</svg>
