<?xml version="1.0" encoding="utf-8"?>
<!DOCTYPE svg PUBLIC "-//W3C//DTD SVG 1.1//EN" "http://www.w3.org/Graphics/SVG/1.1/DTD/svg11.dtd">
<svg version="1.1" id="Layer_1" xmlns="http://www.w3.org/2000/svg" viewBox="0 0 512 512">
<style type="text/css">
<![CDATA[
	.st0{fill:#FFFFFF;}
	.st1{fill:#388E3C;}
]]>
</style>
<rect class="st1" width="512" height="512"/>
<g>
	<path class="st0" d="M42.048,114.938V367.66h431.729V114.938H42.048z M467.929,361.809h-421.2v-241.02h421.2V361.809z"/>
	<rect x="53.926" y="126.913" class="st0" width="406.801" height="227.701"/>
	<g>
		<rect x="228.971" y="361.736" class="st0" width="58.785" height="42.377"/>
		<path class="st0" d="M474.835,410.807c-35.277-9.57-119.163-16.307-217.06-16.307s-181.776,6.734-217.059,16.307H474.835z"/>
	</g>
</g>
<g>
	<path class="st0" d="M237.758,472.031V502.5h-13.887v-84.023h25.488c9.647,0,17.129,2.247,22.441,6.738
		c5.312,4.492,7.97,10.82,7.97,18.984c0,8.165-2.771,14.845-8.316,20.039c-5.551,5.19-13.051,7.793-22.5,7.793H237.758z
		 M237.758,429.961v30.703h9.023c5.977,0,10.526-1.386,13.653-4.16c3.125-2.771,4.688-6.68,4.688-11.719
		c0-9.882-5.742-14.824-17.227-14.824H237.758z"/>
	<path class="st0" d="M354.77,502.5h-15.293l-7.559-21.387h-33.047l-7.266,21.387h-15.234l31.465-84.023h15.703L354.77,502.5z
		 M328.227,469.746L316.57,436.23c-0.354-1.098-0.729-2.854-1.113-5.273h-0.234c-0.352,2.227-0.739,3.984-1.172,5.273
		l-11.543,33.516H328.227z"/>
	<path class="st0" d="M423.207,498.984c-6.328,3.276-14.2,4.922-23.613,4.922c-12.188,0-21.953-3.852-29.297-11.543
		c-7.345-7.695-11.016-17.792-11.016-30.293c0-13.438,4.131-24.296,12.393-32.578c8.262-8.281,18.7-12.422,31.318-12.422
		c8.124,0,14.857,1.147,20.215,3.457v13.828c-5.664-3.359-11.915-5.039-18.75-5.039c-9.104,0-16.475,2.905-22.119,8.729
		c-5.646,5.821-8.467,13.594-8.467,23.32c0,9.258,2.637,16.632,7.91,22.119c5.271,5.483,12.207,8.229,20.801,8.229
		c7.93,0,14.804-1.875,20.625-5.625V498.984z"/>
	<path class="st0" d="M502.719,502.5h-18.164l-29.233-38.438c-1.099-1.444-1.763-2.427-1.992-2.935h-0.234v41.37H439.15v-84.023
		h13.942v39.492h0.234c0.469-0.854,1.133-1.813,1.992-2.871l28.184-36.621H500.2l-32.988,40.313L502.719,502.5z"/>
</g>
</svg>
